graph G {node [shape=circle];
node [style=filled];
node [fillcolor="#EEEEEE"];
node [color="#EEEEEE"];
edge [color="#31CEF0"];
Q23 -- Q0[label=4.4333363, color=mediumturquoise];
Q24 -- Q1[label=7.8015857, color=mediumturquoise];
Q3 -- Q2[label=1.7391584, color=mediumturquoise];
Q4 -- Q2[label=1.9853604, color=mediumturquoise];
Q25 -- Q11[label=3.3586957, color=mediumturquoise];
Q26 -- Q12[label=2.3481781, color=mediumturquoise];
Q5 -- Q4[label=1.7680149, color=mediumturquoise];
Q26 -- Q14[label=1.7875537, color=mediumturquoise];
Q5 -- Q1[label=2.544475, color=mediumturquoise];
Q27 -- Q7[label=3.0776289, color=mediumturquoise];
Q27 -- Q13[label=1.073614, color=mediumturquoise];
Q6 -- Q0[label=1.5970178, color=mediumturquoise];
Q28 -- Q8[label=3.5134914, color=mediumturquoise];
Q29 -- Q0[label=1.3469942, color=mediumturquoise];
Q8 -- Q4[label=2.744106, color=mediumturquoise];
Q9 -- Q1[label=3.3658867, color=mediumturquoise];
Q10 -- Q1[label=2.715889, color=mediumturquoise];
Q10 -- Q0[label=2.1249084, color=mediumturquoise];
Q11 -- Q10[label=2.854198, color=mediumturquoise];
Q16 -- Q14[label=1.6606859, color=mediumturquoise];
Q17 -- Q0[label=4.154248, color=mediumturquoise];
Q17 -- Q15[label=2.0642996, color=mediumturquoise];
Q18 -- Q12[label=1.7423422, color=mediumturquoise];
Q18 -- Q5[label=1.474096, color=mediumturquoise];
Q19 -- Q11[label=3.1400769, color=mediumturquoise];
Q20 -- Q13[label=3.1909595, color=mediumturquoise];
Q20 -- Q16[label=3.5804186, color=mediumturquoise];
Q21 -- Q8[label=1.5833011, color=mediumturquoise];
Q22 -- Q13[label=5.935601, color=mediumturquoise];
}